{
"skeleton": {
	"hash": "fgq1WLbF93a1XGYtHWzMhEhjLrY",
	"spine": "3.2.01",
	"width": 691.04,
	"height": 276,
	"images": "D:/Spine/../4 Sketch/【齿轮】Bike&Gear/gear2/"
},
"bones": [
	{ "name": "root" },
	{ "name": "bone", "parent": "root", "length": 129.12, "rotation": -0.58, "x": 343.2, "y": -0.54 },
	{ "name": "bone2", "parent": "root", "length": 52.79, "rotation": -2.93, "x": 159.2, "y": 2.45 },
	{ "name": "bone3", "parent": "root", "length": 40.65, "x": 50.24, "y": 2.45 },
	{ "name": "bone4", "parent": "root", "length": 53.51, "x": -146.8, "y": 2.45 },
	{ "name": "bone5", "parent": "bone3", "x": -3.12, "y": 31.86 }
],
"slots": [
	{ "name": "gearDefult9", "bone": "bone2", "attachment": "gearDefult3" },
	{ "name": "gearDefult4", "bone": "bone2" },
	{ "name": "gearDefult3", "bone": "root" },
	{ "name": "bone3", "bone": "bone3", "attachment": "gearDefult2" },
	{ "name": "gearDefult7", "bone": "bone3" },
	{ "name": "gearDefult5", "bone": "bone3" },
	{ "name": "gearDefult2", "bone": "root" },
	{ "name": "bone4", "bone": "bone4", "attachment": "gearDefult1" },
	{ "name": "gearDefult8", "bone": "bone4" },
	{ "name": "gearDefult6", "bone": "bone4" },
	{ "name": "gearDefult1", "bone": "root" },
	{ "name": "gear3", "bone": "bone", "attachment": "gear1" },
	{ "name": "gear2", "bone": "bone" },
	{ "name": "gear1", "bone": "root" },
	{ "name": "axis6", "bone": "root" },
	{ "name": "root2", "bone": "root", "attachment": "axis5" },
	{ "name": "axis5", "bone": "root" },
	{ "name": "root3", "bone": "root", "attachment": "axis4" },
	{ "name": "axis4", "bone": "root" },
	{ "name": "root4", "bone": "root", "attachment": "axis6" },
	{ "name": "bone6", "bone": "bone5", "attachment": "connector" },
	{ "name": "bone5", "bone": "bone5" },
	{ "name": "bone7", "bone": "bone5", "attachment": "axis3" },
	{ "name": "axis7", "bone": "bone5" },
	{ "name": "axis3", "bone": "root" },
	{ "name": "root", "bone": "root", "attachment": "axis2" },
	{ "name": "axis2", "bone": "root" },
	{ "name": "axis1", "bone": "bone5", "attachment": "axis1" },
	{ "name": "connector", "bone": "root" }
],
"skins": {
	"default": {
		"axis1": {
			"axis1": { "rotation": 3.81, "width": 8, "height": 8 }
		},
		"bone3": {
			"gearDefult2": { "rotation": -1.05, "width": 126, "height": 126 }
		},
		"bone4": {
			"gearDefult1": { "width": 126, "height": 126 }
		},
		"bone6": {
			"connector": { "x": -96.78, "y": 0.04, "width": 206, "height": 12 }
		},
		"bone7": {
			"axis3": { "x": -193.56, "y": 0.09, "width": 8, "height": 8 }
		},
		"gear3": {
			"gear1": { "x": 0.04, "rotation": 0.58, "width": 276, "height": 276 }
		},
		"gearDefult9": {
			"gearDefult3": { "x": 0.04, "rotation": 2.93, "width": 126, "height": 126 }
		},
		"root": {
			"axis2": { "x": 50.24, "y": 2.45, "width": 30, "height": 30 }
		},
		"root2": {
			"axis5": { "x": 159.24, "y": 2.45, "width": 30, "height": 30 }
		},
		"root3": {
			"axis4": { "x": 341.74, "y": -1.04, "width": 37, "height": 37 }
		},
		"root4": {
			"axis6": { "x": -146.8, "y": 2.45, "width": 30, "height": 30 }
		}
	}
},
"animations": {
	"animation": {
		"bones": {
			"bone2": {
				"rotate": [
					{ "time": 0, "angle": 2.93 },
					{ "time": 0.6666, "angle": 182.93 },
					{ "time": 1, "angle": 272.93 },
					{ "time": 1.3333, "angle": 2.93 }
				]
			},
			"bone3": {
				"rotate": [
					{ "time": 0, "angle": 0 },
					{ "time": 0.3333, "angle": 270 },
					{ "time": 0.6666, "angle": 180 },
					{ "time": 1, "angle": 90 },
					{ "time": 1.3333, "angle": 360 }
				]
			},
			"bone4": {
				"rotate": [
					{ "time": 0, "angle": 0 },
					{ "time": 0.3333, "angle": 270 },
					{ "time": 0.6666, "angle": 180 },
					{ "time": 1, "angle": 90 },
					{ "time": 1.3333, "angle": 360 }
				]
			},
			"bone": {
				"rotate": [
					{ "time": 0, "angle": 0.58 },
					{ "time": 0.6666, "angle": -95.41 },
					{ "time": 1.3333, "angle": -191.41 }
				]
			},
			"bone5": {
				"rotate": [
					{ "time": 0, "angle": 0 },
					{ "time": 0.6666, "angle": 179.99 },
					{ "time": 1, "angle": -90 },
					{ "time": 1.3333, "angle": 0 }
				]
			}
		}
	}
}
}